dff/simulation/qsim/dff.msim.vcd
$comment
	File created using the following command:
		vcd file dff.msim.vcd -direction
$end
$date
	Sat May 28 22:44:18 2022
$end
$version
	ModelSim Version 10.1d
$end
$timescale
	1ps
$end
$scope module dff_8_vlg_vec_tst $end
$var reg 1 ! CLK $end
$var reg 8 " D [7:0] $end
$var reg 1 # RST $end
$var wire 1 $ Q [7] $end
$var wire 1 % Q [6] $end
$var wire 1 & Q [5] $end
$var wire 1 ' Q [4] $end
$var wire 1 ( Q [3] $end
$var wire 1 ) Q [2] $end
$var wire 1 * Q [1] $end
$var wire 1 + Q [0] $end
$var wire 1 , sampler $end
$scope module i1 $end
$var wire 1 - gnd $end
$var wire 1 . vcc $end
$var wire 1 / unknown $end
$var tri1 1 0 devclrn $end
$var tri1 1 1 devpor $end
$var tri1 1 2 devoe $end
$var wire 1 3 CLK~input_o $end
$var wire 1 4 ~QUARTUS_CREATED_GND~I_combout $end
$var wire 1 5 CLK~inputCLKENA0_outclk $end
$var wire 1 6 D[0]~input_o $end
$var wire 1 7 RST~input_o $end
$var wire 1 8 Q[0]~reg0_q $end
$var wire 1 9 D[1]~input_o $end
$var wire 1 : Q[1]~reg0_q $end
$var wire 1 ; D[2]~input_o $end
$var wire 1 < Q[2]~reg0feeder_combout $end
$var wire 1 = Q[2]~reg0_q $end
$var wire 1 > D[3]~input_o $end
$var wire 1 ? Q[3]~reg0_q $end
$var wire 1 @ D[4]~input_o $end
$var wire 1 A Q[4]~reg0feeder_combout $end
$var wire 1 B Q[4]~reg0_q $end
$var wire 1 C D[5]~input_o $end
$var wire 1 D Q[5]~reg0feeder_combout $end
$var wire 1 E Q[5]~reg0_q $end
$var wire 1 F D[6]~input_o $end
$var wire 1 G Q[6]~reg0feeder_combout $end
$var wire 1 H Q[6]~reg0_q $end
$var wire 1 I D[7]~input_o $end
$var wire 1 J Q[7]~reg0_q $end
$upscope $end
$upscope $end
$enddefinitions $end
#0
$dumpvars
0!
b0 "
0#
0+
0*
0)
0(
0'
0&
0%
0$
x,
0-
1.
x/
10
11
12
03
04
05
06
07
08
09
0:
0;
0<
0=
0>
0?
0@
0A
0B
0C
0D
0E
0F
0G
0H
0I
0J
$end
#10000
b1000000 "
b1100000 "
b1110000 "
b1111000 "
b1111010 "
b1111011 "
16
19
1>
1@
1C
1F
0,
1A
1D
1G
#50000
1!
13
15
1,
1H
1E
1B
1?
1:
18
1%
1&
1'
1(
1*
1+
#100000
0!
03
05
0,
#130000
b111011 "
b111001 "
b111000 "
06
09
0F
1,
0G
#150000
1!
13
15
0,
0H
0:
08
0%
0*
0+
#200000
0!
03
05
1,
#240000
b111100 "
b11100 "
b1100 "
b100 "
1;
0>
0@
0C
0,
1<
0A
0D
#250000
1!
13
15
1,
0E
0B
0?
1=
0&
0'
0(
1)
#300000
0!
03
05
0,
#350000
1!
13
15
1,
#400000
0!
03
05
0,
#420000
1#
17
1,
0=
0)
#450000
1!
13
15
0,
#500000
0!
03
05
1,
#530000
b0 "
0#
0;
07
0,
0<
#550000
1!
13
15
1,
#600000
0!
03
05
0,
#650000
1!
13
15
1,
#700000
0!
03
05
0,
#750000
1!
13
15
1,
#800000
0!
03
05
0,
#850000
1!
13
15
1,
#900000
0!
03
05
0,
#950000
1!
13
15
1,
